fsl_str.c:141:17:PrintGetWidth	24	static
fsl_str.c:170:17:PrintGetPrecision	40	static
fsl_str.c:227:17:PrintIsobpu	24	static
fsl_str.c:237:17:PrintIsdi	24	static
fsl_str.c:247:13:PrintOutputdifFobpu	32	static
fsl_str.c:300:13:PrintOutputxX	32	static
fsl_str.c:361:17:PrintIsfF	24	static
fsl_str.c:371:17:PrintIsxX	24	static
fsl_str.c:462:13:PrintFilterLengthFlag	24	static
fsl_str.c:476:16:PrintGetRadixFromobpu	24	static
fsl_str.c:499:17:ScanIsWhiteSpace	24	static
fsl_str.c:509:17:ScanIgnoreWhiteSpace	24	static
fsl_str.c:524:16:ConvertRadixNumToString	56	static
fsl_str.c:630:16:ConvertFloatRadixNumToString	112	static
fsl_str.c:738:5:StrFormatPrintf	144	static
fsl_str.c:993:16:StrFormatScanIsFormatStarting	24	static
fsl_str.c:1012:16:StrFormatScanGetBase	16	static
fsl_str.c:1035:16:StrFormatScanCheckSymbol	24	static
fsl_str.c:1056:16:StrFormatScanFillInteger	24	static
fsl_str.c:1157:16:StrFormatScanfStringHandling	40	static
fsl_str.c:1326:5:StrFormatScanf	88	static
