fsl_powerquad.h:1761:20:PQ_WaitDone	16	static
fsl_powerquad_math.c:22:6:PQ_VectorLnF32	48	static
fsl_powerquad_math.c:47:6:PQ_VectorInvF32	48	static
fsl_powerquad_math.c:72:6:PQ_VectorSqrtF32	48	static
fsl_powerquad_math.c:97:6:PQ_VectorInvSqrtF32	48	static
fsl_powerquad_math.c:122:6:PQ_VectorEtoxF32	48	static
fsl_powerquad_math.c:147:6:PQ_VectorEtonxF32	48	static
fsl_powerquad_math.c:172:6:PQ_VectorSinF32	48	static
fsl_powerquad_math.c:197:6:PQ_VectorCosF32	48	static
fsl_powerquad_math.c:222:6:PQ_VectorLnFixed32	40	static
fsl_powerquad_math.c:244:6:PQ_VectorInvFixed32	40	static
fsl_powerquad_math.c:266:6:PQ_VectorSqrtFixed32	40	static
fsl_powerquad_math.c:288:6:PQ_VectorInvSqrtFixed32	40	static
fsl_powerquad_math.c:310:6:PQ_VectorEtoxFixed32	40	static
fsl_powerquad_math.c:332:6:PQ_VectorEtonxFixed32	40	static
fsl_powerquad_math.c:354:6:PQ_VectorSinQ31	80	static
fsl_powerquad_math.c:449:6:PQ_VectorCosQ31	80	static
fsl_powerquad_math.c:544:6:PQ_VectorLnFixed16	40	static
fsl_powerquad_math.c:566:6:PQ_VectorInvFixed16	40	static
fsl_powerquad_math.c:588:6:PQ_VectorSqrtFixed16	40	static
fsl_powerquad_math.c:610:6:PQ_VectorInvSqrtFixed16	40	static
fsl_powerquad_math.c:632:6:PQ_VectorEtoxFixed16	40	static
fsl_powerquad_math.c:654:6:PQ_VectorEtonxFixed16	40	static
fsl_powerquad_math.c:676:6:PQ_VectorSinQ15	80	static
fsl_powerquad_math.c:772:6:PQ_VectorCosQ15	80	static
fsl_powerquad_math.c:868:9:PQ_ArctanFixed	24	static
fsl_powerquad_math.c:879:9:PQ_ArctanhFixed	24	static
